<?xml version="1.0" encoding="UTF-8"?>
<svg width="29px" height="29px" viewBox="0 0 29 29" version="1.1" xmlns="http://www.w3.org/2000/svg" xmlns:xlink="http://www.w3.org/1999/xlink">
    <!-- Generator: Sketch 48.1 (47250) - http://www.bohemiancoding.com/sketch -->
    <title>Add</title>
    <desc>Created with Sketch.</desc>
    <defs></defs>
    <g id="Specialist-List-GP" stroke="none" stroke-width="1" fill="none" fill-rule="evenodd" transform="translate(-1182.000000, -547.000000)">
        <g id="SP-1" transform="translate(238.000000, 526.000000)" stroke="#0141AA" stroke-width="1.5">
            <g id="Add" transform="translate(836.000000, 22.000000)">
                <g transform="translate(109.000000, 0.000000)">
                    <circle id="Oval-3" fill="#FFFFFF" cx="13.5" cy="13.5" r="13.5"></circle>
                    <g id="+" transform="translate(8.000000, 9.000000)" stroke-linecap="round">
                        <path d="M0.4375,4.875 L10.0625,4.875" id="Line-2"></path>
                        <path d="M5.25,0 L5.25,9.75" id="Line-2-Copy"></path>
                    </g>
                </g>
            </g>
        </g>
    </g>
</svg>