<?xml version="1.0" encoding="UTF-8"?>
<svg width="57px" height="9px" viewBox="0 0 57 9" version="1.1" xmlns="http://www.w3.org/2000/svg" xmlns:xlink="http://www.w3.org/1999/xlink">
    <!-- Generator: Sketch 48.1 (47250) - http://www.bohemiancoding.com/sketch -->
    <title>Progress</title>
    <desc>Created with Sketch.</desc>
    <defs></defs>
    <g id="Update-Patient-Pathway-Active-P" stroke="none" stroke-width="1" fill="none" fill-rule="evenodd" transform="translate(-770.000000, -495.000000)">
        <g id="Progress" transform="translate(770.000000, 495.000000)" fill="#0141AA">
            <circle id="Oval-2" cx="4.5" cy="4.5" r="4.5"></circle>
            <circle id="Oval-2-Copy" cx="28.5" cy="4.5" r="4.5"></circle>
            <circle id="Oval-2-Copy-2" cx="52.5" cy="4.5" r="4.5"></circle>
        </g>
    </g>
</svg>