<?xml version="1.0" encoding="UTF-8"?>
<svg width="22px" height="21px" viewBox="0 0 22 21" version="1.1" xmlns="http://www.w3.org/2000/svg" xmlns:xlink="http://www.w3.org/1999/xlink">
    <!-- Generator: Sketch 48.1 (47250) - http://www.bohemiancoding.com/sketch -->
    <title>Star</title>
    <desc>Created with Sketch.</desc>
    <defs></defs>
    <g id="Specialist-List-P" stroke="none" stroke-width="1" fill="none" fill-rule="evenodd" transform="translate(-1024.000000, -568.000000)">
        <g id="SP-1" transform="translate(247.000000, 546.000000)" fill="#0141AA">
            <polygon id="Star" points="787.93715 39.25 781.17762 42.8036954 782.468575 35.2768477 777 29.9463046 784.557385 28.8481523 787.93715 22 791.316915 28.8481523 798.8743 29.9463046 793.405725 35.2768477 794.69668 42.8036954"></polygon>
        </g>
    </g>
</svg>