<?xml version="1.0" encoding="UTF-8"?>
<svg width="10px" height="14px" viewBox="0 0 10 14" version="1.1" xmlns="http://www.w3.org/2000/svg" xmlns:xlink="http://www.w3.org/1999/xlink">
    <!-- Generator: Sketch 48.1 (47250) - http://www.bohemiancoding.com/sketch -->
    <title>Arrow</title>
    <desc>Created with Sketch.</desc>
    <defs></defs>
    <g id="Edit-Profile-(No-Password-Change)-P" stroke="none" stroke-width="1" fill="none" fill-rule="evenodd" transform="translate(-329.000000, -256.000000)" stroke-linecap="round">
        <g id="Back-Link" transform="translate(330.000000, 253.000000)" stroke="#1094FF" stroke-width="2">
            <g id="Arrow" transform="translate(4.000000, 10.000000) scale(-1, 1) translate(-4.000000, -10.000000) translate(0.000000, 4.000000)">
                <path d="M0.5,0.583333333 L7.5,6.41666667" id="Line-3"></path>
                <path d="M0.5,5.58333333 L7.5,11.4166667" id="Line-3-Copy" transform="translate(4.000000, 8.500000) scale(-1, 1) translate(-4.000000, -8.500000) "></path>
            </g>
        </g>
    </g>
</svg>