<?xml version="1.0" encoding="UTF-8"?>
<svg width="14px" height="12px" viewBox="0 0 14 12" version="1.1" xmlns="http://www.w3.org/2000/svg" xmlns:xlink="http://www.w3.org/1999/xlink">
    <!-- Generator: Sketch 48.1 (47250) - http://www.bohemiancoding.com/sketch -->
    <title>Back Arrow Icon</title>
    <desc>Created with Sketch.</desc>
    <defs></defs>
    <g id="Dashboard-P" stroke="none" stroke-width="1" fill="none" fill-rule="evenodd" transform="translate(-458.000000, -689.000000)">
        <g id="Tutorials" transform="translate(261.000000, 584.000000)" fill="#1094FF">
            <g id="Group" transform="translate(15.000000, 102.000000)">
                <g id="Back-Arrow-Icon" transform="translate(189.000000, 9.000000) scale(-1, 1) translate(-189.000000, -9.000000) translate(182.000000, 3.000000)">
                    <path d="M2.13306717,5.31561882 L6.29043685,1.10198107 C6.53574491,0.852934934 6.53948056,0.446145288 6.29873831,0.192383992 C6.05716591,-0.0609486541 5.66326177,-0.0643778608 5.41795372,0.183810975 L0.186375497,5.48622185 C0.067664661,5.60667274 0.000422859018,5.77084601 7.78616638e-06,5.94230634 C-0.000822359537,6.11376668 0.064759151,6.27879725 0.182224768,6.40010544 L5.42251952,11.8118223 C5.54413587,11.937417 5.70352384,12 5.86291182,12 C6.02188472,12 6.18127269,11.937417 6.30288904,11.8118223 C6.54612173,11.5606329 6.54612173,11.1534146 6.30288904,10.9026539 L2.13804805,6.60157133 L13.3773907,6.60157133 C13.721071,6.60157133 14,6.31351797 14,5.95859508 C14,5.60324353 13.721071,5.31561882 13.3773907,5.31561882 L2.13306717,5.31561882 Z"></path>
                </g>
            </g>
        </g>
    </g>
</svg>