<?xml version="1.0" encoding="UTF-8"?>
<svg width="24px" height="24px" viewBox="0 0 24 24" version="1.1" xmlns="http://www.w3.org/2000/svg" xmlns:xlink="http://www.w3.org/1999/xlink">
    <!-- Generator: Sketch 48.1 (47250) - http://www.bohemiancoding.com/sketch -->
    <title>Search Icon</title>
    <desc>Created with Sketch.</desc>
    <defs></defs>
    <g id="Search-Icon" stroke="none" stroke-width="1" fill="none" fill-rule="evenodd">
        <path d="M14.3214338,17.3742721 C12.2074161,17.3742721 10.2898139,16.5293806 8.88812127,15.157226 C8.88620813,15.157226 8.88557042,15.1508735 8.88365728,15.1508735 C8.88046872,15.1508735 8.87600473,15.1445209 8.87281617,15.1445209 C7.44433964,13.7406035 6.55600579,11.7903653 6.55600579,9.64319746 C6.55600579,5.3742721 10.0398305,1.90577025 14.3214338,1.90577025 C18.6030371,1.90577025 22.0868618,5.3742721 22.0868618,9.64319746 C22.0868618,13.9057702 18.6030371,17.3742721 14.3214338,17.3742721 Z M4.64286758,9.64319746 C4.64286758,11.9809423 5.48528611,14.1281101 6.88123929,15.7988354 L0.280274748,22.3737427 C-0.093424916,22.7485442 -0.093424916,23.3456855 0.280274748,23.720487 C0.46712458,23.9047115 0.712006271,24 0.956887962,24 C1.20176965,24 1.44601363,23.9047115 1.63286346,23.720487 L8.24530683,17.1328745 C9.90782394,18.4732663 12.0212039,19.2800424 14.3214338,19.2800424 C19.6584517,19.2800424 24,14.9539439 24,9.64319746 C24,4.32609846 19.6584517,0 14.3214338,0 C8.98505361,0 4.64286758,4.32609846 4.64286758,9.64319746 Z" fill="#4C4C4C"></path>
    </g>
</svg>